# Blender MTL File: 'ask21mi.blend'
# Material Count: 14

newmtl DefaultWhite
Ns 96.078431
Ka 1.000000 1.000000 1.000000
Kd 0.800000 0.800000 0.800000
Ks 0.500000 0.500000 0.500000
Ke 0.000000 0.000000 0.000000
Ni 1.000000
d 1.000000
illum 2
map_Kd D:\Projects\gfxprog\exam\resources\model\textures\interior.png

newmtl DefaultWhite_alt.png
Ns 96.078431
Ka 1.000000 1.000000 1.000000
Kd 0.800000 0.800000 0.800000
Ks 0.500000 0.500000 0.500000
Ke 0.000000 0.000000 0.000000
Ni 1.000000
d 1.000000
illum 2
map_Kd D:\Projects\gfxprog\exam\resources\model\textures\alt.png

newmtl DefaultWhite_asi.png
Ns 96.078431
Ka 1.000000 1.000000 1.000000
Kd 0.800000 0.800000 0.800000
Ks 0.500000 0.500000 0.500000
Ke 0.000000 0.000000 0.000000
Ni 1.000000
d 1.000000
illum 2
map_Kd D:\Projects\gfxprog\exam\resources\model\textures\asi.png

newmtl DefaultWhite_chrono.png
Ns 96.078431
Ka 1.000000 1.000000 1.000000
Kd 0.800000 0.800000 0.800000
Ks 0.500000 0.500000 0.500000
Ke 0.000000 0.000000 0.000000
Ni 1.000000
d 1.000000
illum 2
map_Kd D:\Projects\gfxprog\exam\resources\model\textures\chrono.png

newmtl DefaultWhite_compass.png
Ns 96.078431
Ka 1.000000 1.000000 1.000000
Kd 0.800000 0.800000 0.800000
Ks 0.500000 0.500000 0.500000
Ke 0.000000 0.000000 0.000000
Ni 1.000000
d 1.000000
illum 2
map_Kd D:\Projects\gfxprog\exam\resources\model\textures\compass.png

newmtl DefaultWhite_cotton_red.png
Ns 96.078431
Ka 1.000000 1.000000 1.000000
Kd 0.800000 0.800000 0.800000
Ks 0.500000 0.500000 0.500000
Ke 0.000000 0.000000 0.000000
Ni 1.000000
d 1.000000
illum 2
map_Kd D:\Projects\gfxprog\exam\resources\model\textures\cotton_red.png

newmtl DefaultWhite_panel.png
Ns 96.078431
Ka 1.000000 1.000000 1.000000
Kd 0.800000 0.800000 0.800000
Ks 0.500000 0.500000 0.500000
Ke 0.000000 0.000000 0.000000
Ni 1.000000
d 1.000000
illum 2
map_Kd D:\Projects\gfxprog\exam\resources\model\textures\panel.png

newmtl DefaultWhite_panel.png.001
Ns 96.078431
Ka 1.000000 1.000000 1.000000
Kd 0.800000 0.800000 0.800000
Ks 0.500000 0.500000 0.500000
Ke 0.000000 0.000000 0.000000
Ni 1.000000
d 1.000000
illum 2
map_Kd D:\Projects\gfxprog\exam\resources\model\textures\panel.png

newmtl DefaultWhite_sc7-top.png
Ns 96.078431
Ka 1.000000 1.000000 1.000000
Kd 0.800000 0.800000 0.800000
Ks 0.500000 0.500000 0.500000
Ke 0.000000 0.000000 0.000000
Ni 1.000000
d 1.000000
illum 2
map_Kd D:\Projects\gfxprog\exam\resources\model\textures\sc7-top.png

newmtl DefaultWhite_texture.png
Ns 96.078431
Ka 1.000000 1.000000 1.000000
Kd 0.800000 0.800000 0.800000
Ks 0.500000 0.500000 0.500000
Ke 0.000000 0.000000 0.000000
Ni 1.000000
d 1.000000
illum 2
map_Kd D:\Projects\gfxprog\exam\resources\model\textures\texture.png

newmtl DefaultWhite_turn.png
Ns 96.078431
Ka 1.000000 1.000000 1.000000
Kd 0.800000 0.800000 0.800000
Ks 0.500000 0.500000 0.500000
Ke 0.000000 0.000000 0.000000
Ni 1.000000
d 1.000000
illum 2
map_Kd D:\Projects\gfxprog\exam\resources\model\textures\turn.png

newmtl DefaultWhite_vario-5stv5.png
Ns 96.078431
Ka 1.000000 1.000000 1.000000
Kd 0.800000 0.800000 0.800000
Ks 0.500000 0.500000 0.500000
Ke 0.000000 0.000000 0.000000
Ni 1.000000
d 1.000000
illum 2
map_Kd D:\Projects\gfxprog\exam\resources\model\textures\vario-5stv5.png

newmtl transparent
Ns 96.078431
Ka 0.500000 0.500000 0.500000
Kd 0.640000 0.640000 0.640000
Ks 0.500000 0.500000 0.500000
Ke 0.000000 0.000000 0.000000
Ni 1.000000
d 0.150000
illum 2

newmtl transparentExt
Ns 96.078431
Ka 0.500000 0.500000 0.500000
Kd 0.320000 0.320000 0.640000
Ks 0.200000 0.200000 0.400000
Ke 0.000000 0.000000 0.000000
Ni 1.000000
d 0.400000
illum 2
